…
  return(allNames)
  
}
```

Example usage with output

``` r
getPokeNameID(sortName = TRUE)
```

    ## # A tibble: 1,118 x 3
    ##    name             url                                         ID
    ##    <chr>            <chr>                                    <dbl>
    ##  1 abomasnow        https://pokeapi.co/api/v2/pokemon/460/     460
    ##  2 abomasnow-mega   https://pokeapi.co/api/v2/pokemon/10060/ 10060
    ##  3 abra             https://pokeapi.co/api/v2/pokemon/63/       63
    ##  4 absol            https://pokeapi.co/api/v2/pokemon/359/     359
    ##  5 absol-mega       https://pokeapi.co/api/v2/pokemon/10057/ 10057
    ##  6 accelgor         https://pokeapi.co/api/v2/pokemon/617/     617
    ##  7 aegislash-blade  https://pokeapi.co/api/v2/pokemon/10026/ 10026
    ##  8 aegislash-shield https://pokeapi.co/api/v2/pokemon/681/     681
    ##  9 aerodactyl       https://pokeapi.co/api/v2/pokemon/142/     142
    ## 10 aerodactyl-mega  https://pokeapi.co/api/v2/pokemon/10042/ 10042
    ## # ... with 1,108 more rows
…
